{
  "subObjectPlayer" : {
    "PlayerPosX" : -100.000000,
    "PlayerPosY" : 230.000000,
    "highscoreNum" : 25,
    "livesNum" : 3,
    "playerDead" : false,
    "playerRespawnCounter" : 90,
    "scoreNum" : 0
  }
}
